Manipulação de dados no R
…
Lendo dados com a função
read.csv2

# Lendo dados de arquivos .csv
dados_ictio <- read.csv2("dados/dados_esp.csv")
dados_ictio

Lendo dados com a função
read_excel

# Lendo dados de arquivos do excel .xls e .xlsx
dados_ictio <- read_excel("dados/dados_esp.xlsx", sheet = 1, na = "NA")
dados_ictio
# A tibble: 22,398 × 14
   order  family genus species river_system locality date                habitat
   <chr>  <chr>  <chr> <chr>   <chr>        <chr>    <dttm>              <chr>  
 1 Silur… Dorad… Trac… Trachy… Amazonas     Floodpl… 2014-11-26 00:00:00 Floodp…
 2 Silur… Dorad… Trac… Trachy… Amazonas     Floodpl… 2014-11-26 00:00:00 Floodp…
 3 Silur… Dorad… Trac… Trachy… Amazonas     Floodpl… 2014-11-26 00:00:00 Floodp…
 4 Silur… Dorad… Trac… Trachy… Amazonas     Floodpl… 2014-11-26 00:00:00 Floodp…
 5 Silur… Dorad… Trac… Trachy… Amazonas     Floodpl… 2014-11-26 00:00:00 Floodp…
 6 Silur… Dorad… Trac… Trachy… Amazonas     Floodpl… 2014-11-26 00:00:00 Floodp…
 7 Chara… Acest… Aces… Acestr… Amazonas     Floodpl… 2014-11-26 00:00:00 Floodp…
 8 Chara… Acest… Aces… Acestr… Amazonas     Floodpl… 2014-11-26 00:00:00 Floodp…
 9 Silur… Dorad… Ossa… Ossanc… Amazonas     Floodpl… 2014-11-26 00:00:00 Floodp…
10 Silur… Dorad… Ossa… Ossanc… Amazonas     Floodpl… 2014-11-26 00:00:00 Floodp…
# ℹ 22,388 more rows
# ℹ 6 more variables: temp <dbl>, ph <dbl>, do <dbl>, cd <dbl>, tb <dbl>,
#   tp <dbl>
…
filter()

A função filter() do pacote dplyr
desempenha um papel central na manipulação de dados em R, permitindo que
os usuários filtrem linhas de um conjunto de dados com base em condições
específicas..

dados_ictio |>
  filter(river_system == "Amazonas") 
# A tibble: 9,876 × 14
   order  family genus species river_system locality date                habitat
   <chr>  <chr>  <chr> <chr>   <chr>        <chr>    <dttm>              <chr>  
 1 Silur… Dorad… Trac… Trachy… Amazonas     Floodpl… 2014-11-26 00:00:00 Floodp…
 2 Silur… Dorad… Trac… Trachy… Amazonas     Floodpl… 2014-11-26 00:00:00 Floodp…
 3 Silur… Dorad… Trac… Trachy… Amazonas     Floodpl… 2014-11-26 00:00:00 Floodp…
 4 Silur… Dorad… Trac… Trachy… Amazonas     Floodpl… 2014-11-26 00:00:00 Floodp…
 5 Silur… Dorad… Trac… Trachy… Amazonas     Floodpl… 2014-11-26 00:00:00 Floodp…
 6 Silur… Dorad… Trac… Trachy… Amazonas     Floodpl… 2014-11-26 00:00:00 Floodp…
 7 Chara… Acest… Aces… Acestr… Amazonas     Floodpl… 2014-11-26 00:00:00 Floodp…
 8 Chara… Acest… Aces… Acestr… Amazonas     Floodpl… 2014-11-26 00:00:00 Floodp…
 9 Silur… Dorad… Ossa… Ossanc… Amazonas     Floodpl… 2014-11-26 00:00:00 Floodp…
10 Silur… Dorad… Ossa… Ossanc… Amazonas     Floodpl… 2014-11-26 00:00:00 Floodp…
# ℹ 9,866 more rows
# ℹ 6 more variables: temp <dbl>, ph <dbl>, do <dbl>, cd <dbl>, tb <dbl>,
#   tp <dbl>
…
