Apostila do minicurso de Noções básicas de linguagem R aplicadas à biologia aquática
…
Lendo dados com a função
read.csv2

# Lendo dados de arquivos .csv
dados_ictio <- read.csv2("dados/dados_esp.csv")
dados_ictio

Lendo dados com a função
read_excel

# Lendo dados de arquivos do excel .xls e .xlsx
dados_ictio <- read_excel("dados/dados_esp.xlsx", sheet = 1, na = "NA")
dados_ictio

## # A tibble: 22,398 × 14
##    order  family genus species river_system locality date                habitat
##    <chr>  <chr>  <chr> <chr>   <chr>        <chr>    <dttm>              <chr>  
##  1 Silur… Dorad… Trac… Trachy… Amazonas     Floodpl… 2014-11-26 00:00:00 Floodp…
##  2 Silur… Dorad… Trac… Trachy… Amazonas     Floodpl… 2014-11-26 00:00:00 Floodp…
##  3 Silur… Dorad… Trac… Trachy… Amazonas     Floodpl… 2014-11-26 00:00:00 Floodp…
##  4 Silur… Dorad… Trac… Trachy… Amazonas     Floodpl… 2014-11-26 00:00:00 Floodp…
##  5 Silur… Dorad… Trac… Trachy… Amazonas     Floodpl… 2014-11-26 00:00:00 Floodp…
##  6 Silur… Dorad… Trac… Trachy… Amazonas     Floodpl… 2014-11-26 00:00:00 Floodp…
##  7 Chara… Acest… Aces… Acestr… Amazonas     Floodpl… 2014-11-26 00:00:00 Floodp…
##  8 Chara… Acest… Aces… Acestr… Amazonas     Floodpl… 2014-11-26 00:00:00 Floodp…
##  9 Silur… Dorad… Ossa… Ossanc… Amazonas     Floodpl… 2014-11-26 00:00:00 Floodp…
## 10 Silur… Dorad… Ossa… Ossanc… Amazonas     Floodpl… 2014-11-26 00:00:00 Floodp…
## # ℹ 22,388 more rows
## # ℹ 6 more variables: temp <dbl>, ph <dbl>, do <dbl>, cd <dbl>, tb <dbl>,
## #   tp <dbl>
…
filter()

A função filter() do pacote dplyr
desempenha um papel central na manipulação de dados em R, permitindo que
os usuários filtrem linhas de um conjunto de dados com base em condições
específicas..

dados_ictio |>
  filter(river_system == "Amazonas") 

## # A tibble: 9,876 × 14
##    order  family genus species river_system locality date                habitat
##    <chr>  <chr>  <chr> <chr>   <chr>        <chr>    <dttm>              <chr>  
##  1 Silur… Dorad… Trac… Trachy… Amazonas     Floodpl… 2014-11-26 00:00:00 Floodp…
##  2 Silur… Dorad… Trac… Trachy… Amazonas     Floodpl… 2014-11-26 00:00:00 Floodp…
##  3 Silur… Dorad… Trac… Trachy… Amazonas     Floodpl… 2014-11-26 00:00:00 Floodp…
##  4 Silur… Dorad… Trac… Trachy… Amazonas     Floodpl… 2014-11-26 00:00:00 Floodp…
##  5 Silur… Dorad… Trac… Trachy… Amazonas     Floodpl… 2014-11-26 00:00:00 Floodp…
##  6 Silur… Dorad… Trac… Trachy… Amazonas     Floodpl… 2014-11-26 00:00:00 Floodp…
##  7 Chara… Acest… Aces… Acestr… Amazonas     Floodpl… 2014-11-26 00:00:00 Floodp…
##  8 Chara… Acest… Aces… Acestr… Amazonas     Floodpl… 2014-11-26 00:00:00 Floodp…
##  9 Silur… Dorad… Ossa… Ossanc… Amazonas     Floodpl… 2014-11-26 00:00:00 Floodp…
## 10 Silur… Dorad… Ossa… Ossanc… Amazonas     Floodpl… 2014-11-26 00:00:00 Floodp…
## # ℹ 9,866 more rows
## # ℹ 6 more variables: temp <dbl>, ph <dbl>, do <dbl>, cd <dbl>, tb <dbl>,
## #   tp <dbl>
…
Familias

# Familias
 dados_ictio |>
   select(family) |>
   distinct()

## # A tibble: 45 × 1
##    family           
##    <chr>            
##  1 Doradidae        
##  2 Acestrorhynchidae
##  3 Characidae       
##  4 Cichlidae        
##  5 Sternopygidae    
##  6 Pristigasteridae 
##  7 Auchenipteridae  
##  8 Triportheidae    
##  9 Curimatidae      
## 10 Cynodontidae     
## # ℹ 35 more rows

# Contribuição de cada familia

 dados_ictio |>
   select(family) |>
   count(family) |>
   arrange(desc(n))

## # A tibble: 45 × 2
##    family                n
##    <chr>             <int>
##  1 Characidae         7528
##  2 Iguanodectidae     2463
##  3 Cichlidae          1888
##  4 Engraulidae        1768
##  5 Hemiodontidae      1553
##  6 Curimatidae        1405
##  7 Sternopygidae       873
##  8 Heptapteridae       633
##  9 Auchenipteridae     631
## 10 Acestrorhynchidae   499
## # ℹ 35 more rows

Especies

# Espécies

 dados_ictio |>
  select(species) |>
  distinct()

## # A tibble: 310 × 1
##    species                    
##    <chr>                      
##  1 Trachydoras nattereri      
##  2 Acestrorhynchus abbreviatus
##  3 Ossancora asterophysa      
##  4 Anadoras grypus            
##  5 Roeboides myersii          
##  6 Cichla monoculus           
##  7 Eigenmannia limbata        
##  8 Pellona flavipinnis        
##  9 Trachelyopterus galeatus   
## 10 Triportheus albus          
## # ℹ 300 more rows
…
dados_limno <-  dados_ictio[,c(4,5, 7:13)]

Temperatura

Verificando a relação com dados das espécies

# Temperatura
dados_temp <- dados_limno |>
  group_by(river_system, habitat, temp) |>
  select(species) |>
  count()
dados_temp

## # A tibble: 77 × 4
## # Groups:   river_system, habitat, temp [77]
##    river_system habitat          temp     n
##    <chr>        <chr>           <dbl> <int>
##  1 Amazonas     Floodplain lake  28.7    53
##  2 Amazonas     Floodplain lake  28.8   469
##  3 Amazonas     Floodplain lake  29       4
##  4 Amazonas     Floodplain lake  29.2   628
##  5 Amazonas     Floodplain lake  29.4    19
##  6 Amazonas     Floodplain lake  29.8    91
##  7 Amazonas     Floodplain lake  30      19
##  8 Amazonas     Floodplain lake  30.1  2144
##  9 Amazonas     Floodplain lake  30.2  3092
## 10 Amazonas     Floodplain lake  30.4  1356
## # ℹ 67 more rows
…
